{
  "project_info": {
    "project_number": "463430554455",
    "firebase_url": "https://javadevs-d8b94.firebaseio.com",
    "project_id": "javadevs-d8b94",
    "storage_bucket": "javadevs-d8b94.appspot.com"
  },
  "client": [
    {
      "client_info": {
        "mobilesdk_app_id": "1:463430554455:android:740712dd60bd5a11962412",
        "android_client_info": {
          "package_name": "com.javadevs"
        }
      },
      "oauth_client": [
        {
          "client_id": "463430554455-cv34k39gbe7nfaak3a017n06psadkfi9.apps.googleusercontent.com",
          "client_type": 3
        }
      ],
      "api_key": [
        {
          "current_key": "AIzaSyCCl0x1ApWQUBE2s4-a-KODnAOQmanhYgI"
        }
      ],
      "services": {
        "appinvite_service": {
          "other_platform_oauth_client": [
            {
              "client_id": "463430554455-cv34k39gbe7nfaak3a017n06psadkfi9.apps.googleusercontent.com",
              "client_type": 3
            }
          ]
        }
      }
    }
  ],
  "configuration_version": "1"
}